<svg width="16" height="16" viewBox="0 0 16 16" fill="none" xmlns="http://www.w3.org/2000/svg">
<path fill-rule="evenodd" clip-rule="evenodd" d="M15.6978 2.304C15.76 2.392 15.8133 2.48 15.8578 2.576C15.9467 2.768 16 2.976 16 3.2V14.4C16 14.728 15.8844 15.04 15.6978 15.296C15.5733 15.464 15.4044 15.616 15.2178 15.728C15.12 15.784 15.0222 15.832 14.9156 15.872C14.7022 15.952 14.4711 16 14.2222 16H1.77778C0.791111 16 0 15.28 0 14.4V3.2C0 2.976 0.0533333 2.768 0.142222 2.576C0.186667 2.48 0.24 2.392 0.302222 2.304C0.426667 2.136 0.595556 1.984 0.782222 1.872C1.06667 1.704 1.40444 1.6 1.77778 1.6H2.66667V0H4.44444V1.6H11.5556V0H13.3333V1.6H14.2222C14.4711 1.6 14.7022 1.648 14.9156 1.728C15.0222 1.768 15.12 1.816 15.2178 1.872C15.4044 1.984 15.5733 2.136 15.6978 2.304ZM1.77779 3.20005V14.4H14.2222V3.20005H1.77779ZM7.99995 9.50406C6.19551 9.50406 2.66662 10.3681 2.66662 12.3681V13.6001H13.3333V12.3761C13.3333 10.3681 9.80439 9.50406 7.99995 9.50406ZM8.0001 11.104C6.83566 11.104 5.33344 11.552 4.7201 12H11.2801C10.6757 11.552 9.16455 11.104 8.0001 11.104ZM8.00005 8.8C9.46672 8.8 10.6667 7.72 10.6667 6.4C10.6667 5.08 9.46672 4 8.00005 4C6.53338 4 5.33338 5.08 5.33338 6.4C5.33338 7.72 6.53338 8.8 8.00005 8.8ZM8.88896 6.39999C8.88896 5.95999 8.48896 5.59999 8.00007 5.59999C7.51118 5.59999 7.11118 5.95999 7.11118 6.39999C7.11118 6.83999 7.51118 7.19999 8.00007 7.19999C8.48896 7.19999 8.88896 6.83999 8.88896 6.39999Z" fill="black" fill-opacity="0.5"/>
</svg>
