<svg width="20" height="20" viewBox="0 0 20 20" fill="none" xmlns="http://www.w3.org/2000/svg">
<path fill-rule="evenodd" clip-rule="evenodd" d="M2 0C0.9 0 0.01 0.9 0.01 2L0 20L4 16H18C19.1 16 20 15.1 20 14V2C20 0.9 19.1 0 18 0H2ZM2 1.99998H18V14H3.17L2 15.17V1.99998ZM16 10H4V12H16V10ZM4 6.99994H16V8.99998H4V6.99994ZM16 4.00001H4V5.99999H16V4.00001Z" fill="#E5E5E5"/>
</svg>
